-- Merging decision tree log ---
manifest
ADDED from E:\Datum  Projects\Chris NEW 19 -07-19\datum-android_v2\DatumV2\lib\src\main\AndroidManifest.xml:1:1-7:12
INJECTED from E:\Datum  Projects\Chris NEW 19 -07-19\datum-android_v2\DatumV2\lib\src\main\AndroidManifest.xml:1:1-7:12
INJECTED from E:\Datum  Projects\Chris NEW 19 -07-19\datum-android_v2\DatumV2\lib\src\main\AndroidManifest.xml:1:1-7:12
	package
		ADDED from E:\Datum  Projects\Chris NEW 19 -07-19\datum-android_v2\DatumV2\lib\src\main\AndroidManifest.xml:2:5-45
		INJECTED from E:\Datum  Projects\Chris NEW 19 -07-19\datum-android_v2\DatumV2\lib\src\main\AndroidManifest.xml
		INJECTED from E:\Datum  Projects\Chris NEW 19 -07-19\datum-android_v2\DatumV2\lib\src\main\AndroidManifest.xml
	xmlns:android
		ADDED from E:\Datum  Projects\Chris NEW 19 -07-19\datum-android_v2\DatumV2\lib\src\main\AndroidManifest.xml:1:11-69
application
ADDED from E:\Datum  Projects\Chris NEW 19 -07-19\datum-android_v2\DatumV2\lib\src\main\AndroidManifest.xml:4:5-6:19
	android:label
		ADDED from E:\Datum  Projects\Chris NEW 19 -07-19\datum-android_v2\DatumV2\lib\src\main\AndroidManifest.xml:5:9-41
	android:allowBackup
		ADDED from E:\Datum  Projects\Chris NEW 19 -07-19\datum-android_v2\DatumV2\lib\src\main\AndroidManifest.xml:4:18-44
uses-sdk
INJECTED from E:\Datum  Projects\Chris NEW 19 -07-19\datum-android_v2\DatumV2\lib\src\main\AndroidManifest.xml reason: use-sdk injection requested
INJECTED from E:\Datum  Projects\Chris NEW 19 -07-19\datum-android_v2\DatumV2\lib\src\main\AndroidManifest.xml
INJECTED from E:\Datum  Projects\Chris NEW 19 -07-19\datum-android_v2\DatumV2\lib\src\main\AndroidManifest.xml
INJECTED from E:\Datum  Projects\Chris NEW 19 -07-19\datum-android_v2\DatumV2\lib\src\main\AndroidManifest.xml
INJECTED from E:\Datum  Projects\Chris NEW 19 -07-19\datum-android_v2\DatumV2\lib\src\main\AndroidManifest.xml
	android:targetSdkVersion
		INJECTED from E:\Datum  Projects\Chris NEW 19 -07-19\datum-android_v2\DatumV2\lib\src\main\AndroidManifest.xml
		ADDED from E:\Datum  Projects\Chris NEW 19 -07-19\datum-android_v2\DatumV2\lib\src\main\AndroidManifest.xml
		INJECTED from E:\Datum  Projects\Chris NEW 19 -07-19\datum-android_v2\DatumV2\lib\src\main\AndroidManifest.xml
	android:minSdkVersion
		INJECTED from E:\Datum  Projects\Chris NEW 19 -07-19\datum-android_v2\DatumV2\lib\src\main\AndroidManifest.xml
		ADDED from E:\Datum  Projects\Chris NEW 19 -07-19\datum-android_v2\DatumV2\lib\src\main\AndroidManifest.xml
		INJECTED from E:\Datum  Projects\Chris NEW 19 -07-19\datum-android_v2\DatumV2\lib\src\main\AndroidManifest.xml
